module extendj.org/micrograde

go 1.19

require github.com/golang-commonmark/markdown v0.0.0-20180910011815-a8f139058164

require (
	github.com/golang-commonmark/html v0.0.0-20180910111043-7d7c804e1d46 // indirect
	github.com/golang-commonmark/linkify v0.0.0-20180910111149-f05efb453a0e // indirect
	github.com/golang-commonmark/mdurl v0.0.0-20180910110917-8d018c6567d6 // indirect
	github.com/golang-commonmark/puny v0.0.0-20180910110745-050be392d8b8 // indirect
	github.com/opennota/wd v0.0.0-20180911144301-b446539ab1e7 // indirect
	github.com/russross/blackfriday v1.6.0 // indirect
)
